%YAML 1.1
%TAG !u! tag:unity3d.com,2011:
--- !u!1 &154260
GameObject:
  m_ObjectHideFlags: 0
  m_PrefabParentObject: {fileID: 0}
  m_PrefabInternal: {fileID: 100100000}
  serializedVersion: 4
  m_Component:
  - 4: {fileID: 441814}
  - 114: {fileID: 11442378}
  m_Layer: 0
  m_Name: StacheAnimation
  m_TagString: Untagged
  m_Icon: {fileID: 0}
  m_NavMeshLayer: 0
  m_StaticEditorFlags: 0
  m_IsActive: 0
--- !u!4 &441814
Transform:
  m_ObjectHideFlags: 1
  m_PrefabParentObject: {fileID: 0}
  m_PrefabInternal: {fileID: 100100000}
  m_GameObject: {fileID: 154260}
  m_LocalRotation: {x: 0, y: 0, z: 0, w: 1}
  m_LocalPosition: {x: 0, y: 0, z: 0}
  m_LocalScale: {x: 1, y: 1, z: 1}
  m_Children: []
  m_Father: {fileID: 0}
  m_RootOrder: 0
--- !u!114 &11442378
MonoBehaviour:
  m_ObjectHideFlags: 1
  m_PrefabParentObject: {fileID: 0}
  m_PrefabInternal: {fileID: 100100000}
  m_GameObject: {fileID: 154260}
  m_Enabled: 1
  m_EditorHideFlags: 0
  m_Script: {fileID: 11500000, guid: ecaffc43a5d2b1d47858e3fb687e7271, type: 3}
  m_Name: 
  m_EditorClassIdentifier: 
  clips:
  - name: Idle
    frames:
    - spriteCollection: {fileID: 11409806, guid: bb19838ce49081a4686fb3e8bfea85e3,
        type: 2}
      spriteId: 0
      triggerEvent: 0
      eventInfo: 
      eventInt: 0
      eventFloat: 0
    fps: 30
    loopStart: 0
    wrapMode: 0
  - name: Attack
    frames:
    - spriteCollection: {fileID: 11409806, guid: bb19838ce49081a4686fb3e8bfea85e3,
        type: 2}
      spriteId: 3
      triggerEvent: 1
      eventInfo: AnimOver
      eventInt: 0
      eventFloat: 0
    - spriteCollection: {fileID: 11409806, guid: bb19838ce49081a4686fb3e8bfea85e3,
        type: 2}
      spriteId: 3
      triggerEvent: 0
      eventInfo: 
      eventInt: 0
      eventFloat: 0
    - spriteCollection: {fileID: 11409806, guid: bb19838ce49081a4686fb3e8bfea85e3,
        type: 2}
      spriteId: 3
      triggerEvent: 0
      eventInfo: 
      eventInt: 0
      eventFloat: 0
    - spriteCollection: {fileID: 11409806, guid: bb19838ce49081a4686fb3e8bfea85e3,
        type: 2}
      spriteId: 3
      triggerEvent: 0
      eventInfo: 
      eventInt: 0
      eventFloat: 0
    - spriteCollection: {fileID: 11409806, guid: bb19838ce49081a4686fb3e8bfea85e3,
        type: 2}
      spriteId: 3
      triggerEvent: 0
      eventInfo: 
      eventInt: 0
      eventFloat: 0
    - spriteCollection: {fileID: 11409806, guid: bb19838ce49081a4686fb3e8bfea85e3,
        type: 2}
      spriteId: 3
      triggerEvent: 0
      eventInfo: 
      eventInt: 0
      eventFloat: 0
    - spriteCollection: {fileID: 11409806, guid: bb19838ce49081a4686fb3e8bfea85e3,
        type: 2}
      spriteId: 3
      triggerEvent: 1
      eventInfo: AnimOver
      eventInt: 1
      eventFloat: 1
    - spriteCollection: {fileID: 11409806, guid: bb19838ce49081a4686fb3e8bfea85e3,
        type: 2}
      spriteId: 1
      triggerEvent: 0
      eventInfo: 
      eventInt: 0
      eventFloat: 0
    - spriteCollection: {fileID: 11409806, guid: bb19838ce49081a4686fb3e8bfea85e3,
        type: 2}
      spriteId: 1
      triggerEvent: 0
      eventInfo: 
      eventInt: 0
      eventFloat: 0
    - spriteCollection: {fileID: 11409806, guid: bb19838ce49081a4686fb3e8bfea85e3,
        type: 2}
      spriteId: 1
      triggerEvent: 0
      eventInfo: 
      eventInt: 0
      eventFloat: 0
    - spriteCollection: {fileID: 11409806, guid: bb19838ce49081a4686fb3e8bfea85e3,
        type: 2}
      spriteId: 1
      triggerEvent: 0
      eventInfo: 
      eventInt: 0
      eventFloat: 0
    - spriteCollection: {fileID: 11409806, guid: bb19838ce49081a4686fb3e8bfea85e3,
        type: 2}
      spriteId: 1
      triggerEvent: 0
      eventInfo: 
      eventInt: 0
      eventFloat: 0
    - spriteCollection: {fileID: 11409806, guid: bb19838ce49081a4686fb3e8bfea85e3,
        type: 2}
      spriteId: 1
      triggerEvent: 0
      eventInfo: 
      eventInt: 0
      eventFloat: 0
    - spriteCollection: {fileID: 11409806, guid: bb19838ce49081a4686fb3e8bfea85e3,
        type: 2}
      spriteId: 1
      triggerEvent: 1
      eventInfo: AnimOver
      eventInt: 0
      eventFloat: 0
    - spriteCollection: {fileID: 11409806, guid: bb19838ce49081a4686fb3e8bfea85e3,
        type: 2}
      spriteId: 2
      triggerEvent: 0
      eventInfo: 
      eventInt: 0
      eventFloat: 0
    - spriteCollection: {fileID: 11409806, guid: bb19838ce49081a4686fb3e8bfea85e3,
        type: 2}
      spriteId: 2
      triggerEvent: 0
      eventInfo: 
      eventInt: 0
      eventFloat: 0
    - spriteCollection: {fileID: 11409806, guid: bb19838ce49081a4686fb3e8bfea85e3,
        type: 2}
      spriteId: 2
      triggerEvent: 0
      eventInfo: 
      eventInt: 0
      eventFloat: 0
    - spriteCollection: {fileID: 11409806, guid: bb19838ce49081a4686fb3e8bfea85e3,
        type: 2}
      spriteId: 2
      triggerEvent: 0
      eventInfo: 
      eventInt: 0
      eventFloat: 0
    - spriteCollection: {fileID: 11409806, guid: bb19838ce49081a4686fb3e8bfea85e3,
        type: 2}
      spriteId: 2
      triggerEvent: 0
      eventInfo: 
      eventInt: 0
      eventFloat: 0
    - spriteCollection: {fileID: 11409806, guid: bb19838ce49081a4686fb3e8bfea85e3,
        type: 2}
      spriteId: 2
      triggerEvent: 0
      eventInfo: 
      eventInt: 0
      eventFloat: 0
    - spriteCollection: {fileID: 11409806, guid: bb19838ce49081a4686fb3e8bfea85e3,
        type: 2}
      spriteId: 2
      triggerEvent: 0
      eventInfo: 
      eventInt: 0
      eventFloat: 0
    - spriteCollection: {fileID: 11409806, guid: bb19838ce49081a4686fb3e8bfea85e3,
        type: 2}
      spriteId: 2
      triggerEvent: 0
      eventInfo: 
      eventInt: 0
      eventFloat: 0
    - spriteCollection: {fileID: 11409806, guid: bb19838ce49081a4686fb3e8bfea85e3,
        type: 2}
      spriteId: 2
      triggerEvent: 0
      eventInfo: 
      eventInt: 0
      eventFloat: 0
    - spriteCollection: {fileID: 11409806, guid: bb19838ce49081a4686fb3e8bfea85e3,
        type: 2}
      spriteId: 2
      triggerEvent: 1
      eventInfo: AnimOver
      eventInt: 0
      eventFloat: 0
    fps: 15
    loopStart: 0
    wrapMode: 0
  - name: Run
    frames:
    - spriteCollection: {fileID: 11409806, guid: bb19838ce49081a4686fb3e8bfea85e3,
        type: 2}
      spriteId: 2
      triggerEvent: 1
      eventInfo: AnimOver
      eventInt: 0
      eventFloat: 0
    fps: 30
    loopStart: 0
    wrapMode: 0
--- !u!1001 &100100000
Prefab:
  m_ObjectHideFlags: 1
  serializedVersion: 2
  m_Modification:
    m_TransformParent: {fileID: 0}
    m_Modifications: []
    m_RemovedComponents: []
  m_ParentPrefab: {fileID: 0}
  m_RootGameObject: {fileID: 154260}
  m_IsPrefabParent: 1
